{
  "compilerOptions": {
    "allowSyntheticDefaultImports": true,
    "strictFunctionTypes": true,
    "alwaysStrict": false,
    "baseUrl": "./src",
    "forceConsistentCasingInFileNames": true,
    "moduleResolution": "node",
    "lib": [
      "dom",
      "es2015",
      "es2015.promise"
    ],
    "target": "es2016",
    "module": "es2015",
    "noImplicitAny": true,
    "noImplicitReturns": true,
    "paths": {
      "@/*": [
        "src/*"
      ]
    }
  },
  "include": [
    "**/*",
    "**/*.vue"
  ],
  "exclude": ["node_modules", "dist", "_nuxt", "public"]
}
