<?xml version="1.0" encoding="utf-8"?>
<!-- Generator: Adobe Illustrator 22.0.1, SVG Export Plug-In . SVG Version: 6.00 Build 0)  -->
<svg version="1.1" id="Layer_1" xmlns="http://www.w3.org/2000/svg" xmlns:xlink="http://www.w3.org/1999/xlink" x="0px" y="0px"
	 viewBox="0 0 247.1 144.9" style="enable-background:new 0 0 247.1 144.9;" xml:space="preserve">
<style type="text/css">
	.st0{fill:#5A9F98;stroke:#447975;stroke-width:2.4149;stroke-linecap:round;stroke-linejoin:round;stroke-miterlimit:10;}
	.st1{fill:#447975;}
	.st2{opacity:0.5;fill:#447975;}
	.st3{fill:#7DCDC2;}
	.st4{opacity:0.5;fill:#5A9F98;}
	.st5{fill:#AF4D26;stroke:#683416;stroke-width:4.8298;stroke-linecap:round;stroke-linejoin:round;stroke-miterlimit:10;}
	.st6{fill:#AF4D26;}
	.st7{fill:#F5DD36;}
	.st8{fill:#FFFFFF;}
	.st9{opacity:0.3;}
	.st10{fill:#DA9027;}
	.st11{fill:none;stroke:#603913;stroke-width:7;stroke-miterlimit:10;}
</style>
<g>
	<g>
		<g>
			<g>
				<polyline class="st0" points="20.6,63.7 7.9,79.4 45,79.4 45,48.1 7.9,48.1 20.6,63.7 				"/>
				<path class="st1" d="M21.1,63.7"/>
				<polyline class="st2" points="20.6,63.7 7.9,79.4 45,79.4 45,63.7 				"/>
			</g>
			<g>
				<polyline class="st0" points="226.5,63.7 239.2,79.4 202.1,79.4 202.1,48.1 239.2,48.1 226.5,63.7 				"/>
				<polyline class="st2" points="226.5,63.7 239.2,79.4 202.1,79.4 202.1,63.7 				"/>
			</g>
			<g>
				<g>
					<path class="st3" d="M32.5,72.9c-0.7,0-1.2-0.5-1.2-1.2V39.8c0-0.7,0.5-1.2,1.2-1.2h182c0.7,0,1.2,0.5,1.2,1.2v31.9
						c0,0.7-0.5,1.2-1.2,1.2H32.5z"/>
					<path class="st1" d="M214.6,39.8v31.9h-182V39.8H214.6 M214.6,37.4h-182c-1.3,0-2.4,1.1-2.4,2.4v31.9c0,1.3,1.1,2.4,2.4,2.4
						h182c1.3,0,2.4-1.1,2.4-2.4V39.8C217,38.4,215.9,37.4,214.6,37.4L214.6,37.4z"/>
				</g>
				<rect x="32.5" y="55.7" class="st4" width="182" height="16"/>
			</g>
		</g>
		<g>
			<g>
				<g>
					<g>
						<path class="st5" d="M140.8,66.9c-0.2,0-0.5-0.1-0.7-0.2L123.6,58L107,66.8c-0.5,0.3-1.1,0.2-1.5-0.1
							c-0.5-0.3-1.3-0.9-1.2-1.4l3.8-18.6L94.6,33.4C94.2,33,94,29.5,94.2,29c0.2-0.5,0.6-0.3,1.2-0.4l18.6-0.4l8.3-16.9
							c0.2-0.5,0.8-0.8,1.3-0.8l0,0c0.6,0,1.1,0.3,1.3,0.8l8.3,16.9l18.6,0.4c0.6,0.1,1-0.1,1.2,0.4c0.2,0.5,0,4.1-0.4,4.4
							l-13.4,13.2l3.7,18.4c0,0.1,0.1,0.3,0.1,0.4C142.9,66.3,141.7,66.9,140.8,66.9C140.8,66.9,140.8,66.9,140.8,66.9z"/>
					</g>
					<g>
						<path class="st5" d="M140.8,63.4c-0.2,0-0.5-0.1-0.7-0.2l-16.6-8.8L107,63.2c-0.5,0.3-1.1,0.2-1.5-0.1
							c-0.5-0.3-0.7-0.9-0.6-1.4l3.2-18.6L94.6,29.9c-0.4-0.4-0.5-1-0.4-1.5c0.2-0.5,0.6-0.9,1.2-1l18.6-2.7l8.3-16.9
							c0.2-0.5,0.8-0.8,1.3-0.8l0,0c0.6,0,1.1,0.3,1.3,0.8l8.3,16.9l18.6,2.7c0.6,0.1,1,0.5,1.2,1c0.2,0.5,0,1.1-0.4,1.5l-13.4,13.2
							l3.1,18.4c0,0.1,0.1,0.3,0.1,0.4C142.3,62.7,141.7,63.4,140.8,63.4C140.8,63.4,140.8,63.4,140.8,63.4z"/>
					</g>
				</g>
				<g>
					<g>
						<path class="st6" d="M140.8,66.9c-0.2,0-0.5-0.1-0.7-0.2L123.6,58L107,66.8c-0.5,0.3-1.1,0.2-1.5-0.1
							c-0.5-0.3-1.3-0.9-1.2-1.4l3.8-18.6L94.6,33.4C94.2,33,94,29.5,94.2,29c0.2-0.5,0.6-0.3,1.2-0.4l18.6-0.4l8.3-16.9
							c0.2-0.5,0.8-0.8,1.3-0.8l0,0c0.6,0,1.1,0.3,1.3,0.8l8.3,16.9l18.6,0.4c0.6,0.1,1-0.1,1.2,0.4c0.2,0.5,0,4.1-0.4,4.4
							l-13.4,13.2l3.7,18.4c0,0.1,0.1,0.3,0.1,0.4C142.9,66.3,141.7,66.9,140.8,66.9C140.8,66.9,140.8,66.9,140.8,66.9z"/>
					</g>
					<g>
						<path class="st7" d="M140.8,63.4c-0.2,0-0.5-0.1-0.7-0.2l-16.6-8.8L107,63.2c-0.5,0.3-1.1,0.2-1.5-0.1
							c-0.5-0.3-0.7-0.9-0.6-1.4l3.2-18.6L94.6,29.9c-0.4-0.4-0.5-1-0.4-1.5c0.2-0.5,0.6-0.9,1.2-1l18.6-2.7l8.3-16.9
							c0.2-0.5,0.8-0.8,1.3-0.8l0,0c0.6,0,1.1,0.3,1.3,0.8l8.3,16.9l18.6,2.7c0.6,0.1,1,0.5,1.2,1c0.2,0.5,0,1.1-0.4,1.5l-13.4,13.2
							l3.1,18.4c0,0.1,0.1,0.3,0.1,0.4C142.3,62.7,141.7,63.4,140.8,63.4C140.8,63.4,140.8,63.4,140.8,63.4z"/>
					</g>
					<g>
						<path class="st8" d="M122.3,10.4c-1.3,2-5.7,10.6,0.6,8.2C128.5,16.5,125.1,6,122.3,10.4C121.6,11.5,122.9,9.5,122.3,10.4z"/>
						<path class="st8" d="M117.9,19.7c-0.8,0.5-1.6,1.6-1.4,2.6c0.1,0.7,0.5,1.4,1.1,1.7c0.8,0.4,1.9,0.3,2.6-0.2
							c1-0.7,1.2-2.5,0.4-3.4C119.8,19.6,119,19.4,117.9,19.7z"/>
						<path class="st8" d="M107,27.8c-2.4-0.7-12.6-0.3-9.4,3.2C102,35.9,110.4,28.7,107,27.8C106.5,27.6,107.6,27.9,107,27.8z"/>
					</g>
					<g class="st9">
						<path class="st10" d="M152.9,28.4c-0.2-0.5-0.6-0.9-1.2-1l-14.8-2.2c-0.4,14.1-12.3,25.7-26.5,25.7c-1.3,0-2.5-0.1-3.8-0.3
							l-1.9,11.1c-0.1,0.6,0.1,1.1,0.6,1.4c0.5,0.3,1.1,0.4,1.5,0.1l16.6-8.8l16.6,8.8c0.2,0.1,0.5,0.2,0.7,0.2c0,0,0,0,0,0
							c0.8,0,1.5-0.7,1.5-1.5c0-0.1,0-0.3-0.1-0.4l-3.1-18.4l13.4-13.2C152.9,29.5,153.1,28.9,152.9,28.4z"/>
					</g>
					<g class="st9">
						<path class="st10" d="M152.9,28.4c-0.2-0.5-0.6-0.9-1.2-1l-11.1-1.6c0,0.3,0,0.6,0,0.9c0,15.2-12.7,28-28,28
							c-2.2,0-4.4-0.3-6.5-0.8l-1.3,7.9c-0.1,0.6,0.1,1.1,0.6,1.4c0.5,0.3,1.1,0.4,1.5,0.1l16.6-8.8l16.6,8.8
							c0.2,0.1,0.5,0.2,0.7,0.2c0,0,0,0,0,0c0.8,0,1.5-0.7,1.5-1.5c0-0.1,0-0.3-0.1-0.4l-3.1-18.4l13.4-13.2
							C152.9,29.5,153.1,28.9,152.9,28.4z"/>
					</g>
				</g>
			</g>
			<g>
				<g>
					<g>
						<path class="st5" d="M76.6,60.3c-0.2,0-0.4,0-0.5-0.1l-12.9-6.9l-12.9,6.9c-0.4,0.2-0.9,0.2-1.2-0.1c-0.4-0.3-1-0.7-0.9-1.1
							L51,44.5L40.5,34.2c-0.3-0.3-0.4-3.1-0.3-3.5c0.1-0.4,0.5-0.3,0.9-0.3l14.5-0.3l6.5-13.2c0.2-0.4,0.6-0.6,1-0.6l0,0
							c0.4,0,0.8,0.2,1,0.6l6.5,13.2l14.5,0.3c0.4,0.1,0.8-0.1,0.9,0.3c0.1,0.4,0,3.2-0.3,3.5L75.2,44.5l2.9,14.4
							c0,0.1,0.1,0.2,0.1,0.3C78.2,59.8,77.2,60.3,76.6,60.3C76.6,60.3,76.6,60.3,76.6,60.3z"/>
					</g>
					<g>
						<path class="st5" d="M76.6,57.6c-0.2,0-0.4,0-0.5-0.1l-12.9-6.9l-12.9,6.9c-0.4,0.2-0.9,0.2-1.2-0.1c-0.4-0.3-0.5-0.7-0.5-1.1
							L51,41.7L40.5,31.4c-0.3-0.3-0.4-0.8-0.3-1.2c0.1-0.4,0.5-0.7,0.9-0.8l14.5-2.1l6.5-13.2c0.2-0.4,0.6-0.6,1-0.6l0,0
							c0.4,0,0.8,0.2,1,0.6l6.5,13.2l14.5,2.1c0.4,0.1,0.8,0.4,0.9,0.8c0.1,0.4,0,0.9-0.3,1.2L75.2,41.7l2.4,14.4
							c0,0.1,0.1,0.2,0.1,0.3C77.7,57.1,77.2,57.6,76.6,57.6C76.6,57.6,76.6,57.6,76.6,57.6z"/>
					</g>
				</g>
				<g>
					<g>
						<path class="st6" d="M76.6,60.3c-0.2,0-0.4,0-0.5-0.1l-12.9-6.9l-12.9,6.9c-0.4,0.2-0.9,0.2-1.2-0.1c-0.4-0.3-1-0.7-0.9-1.1
							L51,44.5L40.5,34.2c-0.3-0.3-0.4-3.1-0.3-3.5c0.1-0.4,0.5-0.3,0.9-0.3l14.5-0.3l6.5-13.2c0.2-0.4,0.6-0.6,1-0.6l0,0
							c0.4,0,0.8,0.2,1,0.6l6.5,13.2l14.5,0.3c0.4,0.1,0.8-0.1,0.9,0.3c0.1,0.4,0,3.2-0.3,3.5L75.2,44.5l2.9,14.4
							c0,0.1,0.1,0.2,0.1,0.3C78.2,59.8,77.2,60.3,76.6,60.3C76.6,60.3,76.6,60.3,76.6,60.3z"/>
					</g>
					<g>
						<path class="st7" d="M76.6,57.6c-0.2,0-0.4,0-0.5-0.1l-12.9-6.9l-12.9,6.9c-0.4,0.2-0.9,0.2-1.2-0.1c-0.4-0.3-0.5-0.7-0.5-1.1
							L51,41.7L40.5,31.4c-0.3-0.3-0.4-0.8-0.3-1.2c0.1-0.4,0.5-0.7,0.9-0.8l14.5-2.1l6.5-13.2c0.2-0.4,0.6-0.6,1-0.6l0,0
							c0.4,0,0.8,0.2,1,0.6l6.5,13.2l14.5,2.1c0.4,0.1,0.8,0.4,0.9,0.8c0.1,0.4,0,0.9-0.3,1.2L75.2,41.7l2.4,14.4
							c0,0.1,0.1,0.2,0.1,0.3C77.7,57.1,77.2,57.6,76.6,57.6C76.6,57.6,76.6,57.6,76.6,57.6z"/>
					</g>
					<g>
						<path class="st8" d="M62.1,16.2c-1,1.6-4.4,8.3,0.4,6.4C67,21,64.3,12.8,62.1,16.2C61.5,17.1,62.6,15.5,62.1,16.2z"/>
						<path class="st8" d="M58.7,23.5c-0.6,0.4-1.3,1.3-1.1,2c0.1,0.5,0.4,1.1,0.9,1.4c0.6,0.3,1.5,0.3,2-0.1c0.8-0.5,1-2,0.3-2.7
							C60.2,23.4,59.5,23.3,58.7,23.5z"/>
						<path class="st8" d="M50.2,29.8c-1.9-0.5-9.9-0.3-7.3,2.5C46.3,36.1,52.9,30.5,50.2,29.8C49.8,29.7,50.7,29.9,50.2,29.8z"/>
					</g>
					<g class="st9">
						<path class="st10" d="M86,30.2c-0.1-0.4-0.5-0.7-0.9-0.8l-11.5-1.7c-0.3,11-9.6,20-20.6,20c-1,0-2-0.1-2.9-0.2l-1.5,8.6
							c-0.1,0.4,0.1,0.9,0.5,1.1c0.4,0.3,0.8,0.3,1.2,0.1l12.9-6.9L76,57.4c0.2,0.1,0.4,0.1,0.5,0.1c0,0,0,0,0,0
							c0.6,0,1.1-0.5,1.1-1.1c0-0.1,0-0.2-0.1-0.3l-2.4-14.4l10.5-10.3C86,31.1,86.1,30.7,86,30.2z"/>
					</g>
					<g class="st9">
						<path class="st10" d="M86,30.2c-0.1-0.4-0.5-0.7-0.9-0.8l-8.7-1.3c0,0.2,0,0.5,0,0.7c0,11.9-9.9,21.8-21.8,21.8
							c-1.7,0-3.4-0.2-5.1-0.6l-1,6.2c-0.1,0.4,0.1,0.9,0.5,1.1c0.4,0.3,0.8,0.3,1.2,0.1l12.9-6.9L76,57.4c0.2,0.1,0.4,0.1,0.5,0.1
							c0,0,0,0,0,0c0.6,0,1.1-0.5,1.1-1.1c0-0.1,0-0.2-0.1-0.3l-2.4-14.4l10.5-10.3C86,31.1,86.1,30.7,86,30.2z"/>
					</g>
				</g>
			</g>
			<g>
				<g>
					<g>
						<path class="st5" d="M197.5,60.3c-0.2,0-0.4,0-0.5-0.1L184,53.3l-12.9,6.9c-0.4,0.2-0.9,0.2-1.2-0.1c-0.4-0.3-1-0.7-0.9-1.1
							l2.9-14.5l-10.5-10.3c-0.3-0.3-0.4-3.1-0.3-3.5c0.1-0.4,0.5-0.3,0.9-0.3l14.5-0.3l6.5-13.2c0.2-0.4,0.6-0.6,1-0.6l0,0
							c0.4,0,0.8,0.2,1,0.6l6.5,13.2l14.5,0.3c0.4,0.1,0.8-0.1,0.9,0.3c0.1,0.4,0,3.2-0.3,3.5l-10.5,10.3l2.9,14.4
							c0,0.1,0.1,0.2,0.1,0.3C199.1,59.8,198.1,60.3,197.5,60.3C197.5,60.3,197.5,60.3,197.5,60.3z"/>
					</g>
					<g>
						<path class="st5" d="M197.5,57.6c-0.2,0-0.4,0-0.5-0.1L184,50.6l-12.9,6.9c-0.4,0.2-0.9,0.2-1.2-0.1c-0.4-0.3-0.5-0.7-0.5-1.1
							l2.5-14.5l-10.5-10.3c-0.3-0.3-0.4-0.8-0.3-1.2c0.1-0.4,0.5-0.7,0.9-0.8l14.5-2.1l6.5-13.2c0.2-0.4,0.6-0.6,1-0.6l0,0
							c0.4,0,0.8,0.2,1,0.6l6.5,13.2l14.5,2.1c0.4,0.1,0.8,0.4,0.9,0.8c0.1,0.4,0,0.9-0.3,1.2l-10.5,10.3l2.4,14.4
							c0,0.1,0.1,0.2,0.1,0.3C198.6,57.1,198.1,57.6,197.5,57.6C197.5,57.6,197.5,57.6,197.5,57.6z"/>
					</g>
				</g>
				<g>
					<g>
						<path class="st6" d="M197.5,60.3c-0.2,0-0.4,0-0.5-0.1L184,53.3l-12.9,6.9c-0.4,0.2-0.9,0.2-1.2-0.1c-0.4-0.3-1-0.7-0.9-1.1
							l2.9-14.5l-10.5-10.3c-0.3-0.3-0.4-3.1-0.3-3.5c0.1-0.4,0.5-0.3,0.9-0.3l14.5-0.3l6.5-13.2c0.2-0.4,0.6-0.6,1-0.6l0,0
							c0.4,0,0.8,0.2,1,0.6l6.5,13.2l14.5,0.3c0.4,0.1,0.8-0.1,0.9,0.3c0.1,0.4,0,3.2-0.3,3.5l-10.5,10.3l2.9,14.4
							c0,0.1,0.1,0.2,0.1,0.3C199.1,59.8,198.1,60.3,197.5,60.3C197.5,60.3,197.5,60.3,197.5,60.3z"/>
					</g>
					<g>
						<path class="st7" d="M197.5,57.6c-0.2,0-0.4,0-0.5-0.1L184,50.6l-12.9,6.9c-0.4,0.2-0.9,0.2-1.2-0.1c-0.4-0.3-0.5-0.7-0.5-1.1
							l2.5-14.5l-10.5-10.3c-0.3-0.3-0.4-0.8-0.3-1.2c0.1-0.4,0.5-0.7,0.9-0.8l14.5-2.1l6.5-13.2c0.2-0.4,0.6-0.6,1-0.6l0,0
							c0.4,0,0.8,0.2,1,0.6l6.5,13.2l14.5,2.1c0.4,0.1,0.8,0.4,0.9,0.8c0.1,0.4,0,0.9-0.3,1.2l-10.5,10.3l2.4,14.4
							c0,0.1,0.1,0.2,0.1,0.3C198.6,57.1,198.1,57.6,197.5,57.6C197.5,57.6,197.5,57.6,197.5,57.6z"/>
					</g>
					<g>
						<path class="st8" d="M183,16.2c-1,1.6-4.4,8.3,0.4,6.4C187.9,21,185.2,12.8,183,16.2C182.5,17.1,183.5,15.5,183,16.2z"/>
						<path class="st8" d="M179.6,23.5c-0.6,0.4-1.3,1.3-1.1,2c0.1,0.5,0.4,1.1,0.9,1.4c0.6,0.3,1.5,0.3,2-0.1c0.8-0.5,1-2,0.3-2.7
							C181.1,23.4,180.5,23.3,179.6,23.5z"/>
						<path class="st8" d="M171.1,29.8c-1.9-0.5-9.9-0.3-7.3,2.5C167.2,36.1,173.8,30.5,171.1,29.8
							C170.7,29.7,171.6,29.9,171.1,29.8z"/>
					</g>
					<g class="st9">
						<path class="st10" d="M206.9,30.2c-0.1-0.4-0.5-0.7-0.9-0.8l-11.5-1.7c-0.3,11-9.6,20-20.6,20c-1,0-2-0.1-2.9-0.2l-1.5,8.6
							c-0.1,0.4,0.1,0.9,0.5,1.1c0.4,0.3,0.8,0.3,1.2,0.1l12.9-6.9l12.9,6.9c0.2,0.1,0.4,0.1,0.5,0.1c0,0,0,0,0,0
							c0.6,0,1.1-0.5,1.1-1.1c0-0.1,0-0.2-0.1-0.3l-2.4-14.4l10.5-10.3C206.9,31.1,207,30.7,206.9,30.2z"/>
					</g>
					<g class="st9">
						<path class="st10" d="M206.9,30.2c-0.1-0.4-0.5-0.7-0.9-0.8l-8.7-1.3c0,0.2,0,0.5,0,0.7c0,11.9-9.9,21.8-21.8,21.8
							c-1.7,0-3.4-0.2-5.1-0.6l-1.1,6.2c-0.1,0.4,0.1,0.9,0.5,1.1c0.4,0.3,0.8,0.3,1.2,0.1l12.9-6.9l12.9,6.9
							c0.2,0.1,0.4,0.1,0.5,0.1c0,0,0,0,0,0c0.6,0,1.1-0.5,1.1-1.1c0-0.1,0-0.2-0.1-0.3l-2.4-14.4l10.5-10.3
							C206.9,31.1,207,30.7,206.9,30.2z"/>
					</g>
				</g>
			</g>
		</g>
	</g>
	<g>
		<g>
			<path class="st11" d="M48.6,97.8H38.1v34.3c0,2-0.4,3.4-1.3,4.4c-0.9,1-2,1.4-3.4,1.4c-1.4,0-2.6-0.5-3.5-1.4
				c-0.9-1-1.3-2.4-1.3-4.4V97.8H18.2c-1.6,0-2.8-0.4-3.6-1.1c-0.8-0.7-1.2-1.7-1.2-2.9c0-1.2,0.4-2.2,1.2-2.9
				c0.8-0.7,2-1.1,3.6-1.1h30.4c1.7,0,2.9,0.4,3.7,1.1c0.8,0.7,1.2,1.7,1.2,2.9s-0.4,2.1-1.2,2.9C51.4,97.5,50.2,97.8,48.6,97.8z"/>
			<path class="st7" d="M48.6,97.8H38.1v34.3c0,2-0.4,3.4-1.3,4.4c-0.9,1-2,1.4-3.4,1.4c-1.4,0-2.6-0.5-3.5-1.4
				c-0.9-1-1.3-2.4-1.3-4.4V97.8H18.2c-1.6,0-2.8-0.4-3.6-1.1c-0.8-0.7-1.2-1.7-1.2-2.9c0-1.2,0.4-2.2,1.2-2.9
				c0.8-0.7,2-1.1,3.6-1.1h30.4c1.7,0,2.9,0.4,3.7,1.1c0.8,0.7,1.2,1.7,1.2,2.9s-0.4,2.1-1.2,2.9C51.4,97.5,50.2,97.8,48.6,97.8z"/>
		</g>
		<g>
			<path class="st11" d="M72,117h-3.4v15.2c0,2-0.4,3.5-1.3,4.4c-0.9,0.9-2,1.4-3.4,1.4c-1.5,0-2.7-0.5-3.5-1.5
				c-0.8-1-1.3-2.4-1.3-4.3V95.8c0-2.1,0.5-3.6,1.4-4.5c0.9-0.9,2.4-1.4,4.5-1.4h15.6c2.1,0,4,0.1,5.5,0.3c1.5,0.2,2.9,0.6,4.1,1.1
				c1.5,0.6,2.8,1.5,3.9,2.7c1.1,1.2,2,2.5,2.6,4c0.6,1.5,0.9,3.2,0.9,4.9c0,3.5-1,6.3-3,8.4c-2,2.1-5,3.6-9,4.5
				c1.7,0.9,3.3,2.2,4.9,4c1.5,1.8,2.9,3.6,4.1,5.6c1.2,2,2.2,3.8,2.8,5.4c0.7,1.6,1,2.7,1,3.3c0,0.6-0.2,1.2-0.6,1.9
				c-0.4,0.6-0.9,1.1-1.6,1.4c-0.7,0.4-1.5,0.5-2.4,0.5c-1.1,0-2-0.3-2.7-0.8c-0.7-0.5-1.4-1.1-1.9-1.9c-0.5-0.8-1.2-1.9-2.1-3.4
				l-3.8-6.4c-1.4-2.3-2.6-4.1-3.7-5.3c-1.1-1.2-2.2-2.1-3.3-2.5C75.1,117.2,73.7,117,72,117z M77.5,97.1h-8.8v13h8.6
				c2.3,0,4.2-0.2,5.8-0.6c1.6-0.4,2.8-1.1,3.6-2s1.2-2.3,1.2-3.9c0-1.3-0.3-2.5-1-3.5c-0.7-1-1.6-1.7-2.8-2.2
				C83,97.3,80.8,97.1,77.5,97.1z"/>
			<path class="st7" d="M72,117h-3.4v15.2c0,2-0.4,3.5-1.3,4.4c-0.9,0.9-2,1.4-3.4,1.4c-1.5,0-2.7-0.5-3.5-1.5
				c-0.8-1-1.3-2.4-1.3-4.3V95.8c0-2.1,0.5-3.6,1.4-4.5c0.9-0.9,2.4-1.4,4.5-1.4h15.6c2.1,0,4,0.1,5.5,0.3c1.5,0.2,2.9,0.6,4.1,1.1
				c1.5,0.6,2.8,1.5,3.9,2.7c1.1,1.2,2,2.5,2.6,4c0.6,1.5,0.9,3.2,0.9,4.9c0,3.5-1,6.3-3,8.4c-2,2.1-5,3.6-9,4.5
				c1.7,0.9,3.3,2.2,4.9,4c1.5,1.8,2.9,3.6,4.1,5.6c1.2,2,2.2,3.8,2.8,5.4c0.7,1.6,1,2.7,1,3.3c0,0.6-0.2,1.2-0.6,1.9
				c-0.4,0.6-0.9,1.1-1.6,1.4c-0.7,0.4-1.5,0.5-2.4,0.5c-1.1,0-2-0.3-2.7-0.8c-0.7-0.5-1.4-1.1-1.9-1.9c-0.5-0.8-1.2-1.9-2.1-3.4
				l-3.8-6.4c-1.4-2.3-2.6-4.1-3.7-5.3c-1.1-1.2-2.2-2.1-3.3-2.5C75.1,117.2,73.7,117,72,117z M77.5,97.1h-8.8v13h8.6
				c2.3,0,4.2-0.2,5.8-0.6c1.6-0.4,2.8-1.1,3.6-2s1.2-2.3,1.2-3.9c0-1.3-0.3-2.5-1-3.5c-0.7-1-1.6-1.7-2.8-2.2
				C83,97.3,80.8,97.1,77.5,97.1z"/>
		</g>
		<g>
			<path class="st11" d="M107,132.1V94.9c0-1.9,0.4-3.4,1.3-4.3c0.9-1,2-1.4,3.4-1.4c1.4,0,2.6,0.5,3.5,1.4c0.9,1,1.3,2.4,1.3,4.4
				v37.2c0,2-0.4,3.4-1.3,4.4c-0.9,1-2.1,1.4-3.5,1.4c-1.4,0-2.5-0.5-3.4-1.5C107.5,135.5,107,134.1,107,132.1z"/>
			<path class="st7" d="M107,132.1V94.9c0-1.9,0.4-3.4,1.3-4.3c0.9-1,2-1.4,3.4-1.4c1.4,0,2.6,0.5,3.5,1.4c0.9,1,1.3,2.4,1.3,4.4
				v37.2c0,2-0.4,3.4-1.3,4.4c-0.9,1-2.1,1.4-3.5,1.4c-1.4,0-2.5-0.5-3.4-1.5C107.5,135.5,107,134.1,107,132.1z"/>
		</g>
		<g>
			<path class="st11" d="M134.3,95.4l10.7,31.7l10.7-31.9c0.6-1.7,1-2.8,1.3-3.5c0.3-0.7,0.7-1.2,1.4-1.8c0.6-0.5,1.5-0.8,2.6-0.8
				c0.8,0,1.6,0.2,2.3,0.6c0.7,0.4,1.2,1,1.6,1.6c0.4,0.7,0.6,1.4,0.6,2c0,0.5-0.1,1-0.2,1.5c-0.1,0.5-0.3,1.1-0.5,1.6
				c-0.2,0.5-0.4,1.1-0.6,1.6L152.8,129c-0.4,1.2-0.8,2.3-1.2,3.4c-0.4,1.1-0.9,2-1.4,2.8c-0.5,0.8-1.3,1.5-2.1,2
				c-0.9,0.5-2,0.8-3.3,0.8c-1.3,0-2.4-0.3-3.3-0.8c-0.9-0.5-1.6-1.2-2.2-2c-0.5-0.8-1-1.8-1.4-2.8c-0.4-1.1-0.8-2.2-1.2-3.4
				l-11.2-30.6c-0.2-0.6-0.4-1.1-0.6-1.6c-0.2-0.5-0.4-1.1-0.5-1.7c-0.1-0.6-0.2-1.1-0.2-1.6c0-1.1,0.4-2.1,1.3-3
				c0.9-0.9,2-1.4,3.3-1.4c1.6,0,2.8,0.5,3.5,1.5C132.9,91.6,133.6,93.2,134.3,95.4z"/>
			<path class="st7" d="M134.3,95.4l10.7,31.7l10.7-31.9c0.6-1.7,1-2.8,1.3-3.5c0.3-0.7,0.7-1.2,1.4-1.8c0.6-0.5,1.5-0.8,2.6-0.8
				c0.8,0,1.6,0.2,2.3,0.6c0.7,0.4,1.2,1,1.6,1.6c0.4,0.7,0.6,1.4,0.6,2c0,0.5-0.1,1-0.2,1.5c-0.1,0.5-0.3,1.1-0.5,1.6
				c-0.2,0.5-0.4,1.1-0.6,1.6L152.8,129c-0.4,1.2-0.8,2.3-1.2,3.4c-0.4,1.1-0.9,2-1.4,2.8c-0.5,0.8-1.3,1.5-2.1,2
				c-0.9,0.5-2,0.8-3.3,0.8c-1.3,0-2.4-0.3-3.3-0.8c-0.9-0.5-1.6-1.2-2.2-2c-0.5-0.8-1-1.8-1.4-2.8c-0.4-1.1-0.8-2.2-1.2-3.4
				l-11.2-30.6c-0.2-0.6-0.4-1.1-0.6-1.6c-0.2-0.5-0.4-1.1-0.5-1.7c-0.1-0.6-0.2-1.1-0.2-1.6c0-1.1,0.4-2.1,1.3-3
				c0.9-0.9,2-1.4,3.3-1.4c1.6,0,2.8,0.5,3.5,1.5C132.9,91.6,133.6,93.2,134.3,95.4z"/>
		</g>
		<g>
			<path class="st11" d="M173.1,132.1V94.9c0-1.9,0.4-3.4,1.3-4.3c0.9-1,2-1.4,3.4-1.4c1.4,0,2.6,0.5,3.5,1.4c0.9,1,1.3,2.4,1.3,4.4
				v37.2c0,2-0.4,3.4-1.3,4.4c-0.9,1-2.1,1.4-3.5,1.4c-1.4,0-2.5-0.5-3.4-1.5C173.5,135.5,173.1,134.1,173.1,132.1z"/>
			<path class="st7" d="M173.1,132.1V94.9c0-1.9,0.4-3.4,1.3-4.3c0.9-1,2-1.4,3.4-1.4c1.4,0,2.6,0.5,3.5,1.4c0.9,1,1.3,2.4,1.3,4.4
				v37.2c0,2-0.4,3.4-1.3,4.4c-0.9,1-2.1,1.4-3.5,1.4c-1.4,0-2.5-0.5-3.4-1.5C173.5,135.5,173.1,134.1,173.1,132.1z"/>
		</g>
		<g>
			<path class="st11" d="M223.6,131.8l-2.3-5.9h-19.2l-2.3,6.1c-0.9,2.4-1.6,4-2.3,4.8c-0.6,0.8-1.6,1.2-3.1,1.2
				c-1.2,0-2.3-0.4-3.2-1.3c-0.9-0.9-1.4-1.9-1.4-3c0-0.6,0.1-1.3,0.3-2c0.2-0.7,0.6-1.6,1.1-2.9l12.1-30.7c0.3-0.9,0.8-1.9,1.2-3.2
				s1-2.3,1.5-3.1c0.5-0.8,1.3-1.5,2.2-2c0.9-0.5,2-0.8,3.3-0.8c1.3,0,2.4,0.3,3.3,0.8c0.9,0.5,1.6,1.2,2.2,2s1,1.6,1.4,2.6
				c0.4,0.9,0.9,2.1,1.4,3.7l12.3,30.5c1,2.3,1.4,4,1.4,5.1c0,1.1-0.5,2.1-1.4,3c-0.9,0.9-2,1.4-3.3,1.4c-0.8,0-1.4-0.1-1.9-0.4
				c-0.5-0.3-1-0.6-1.4-1.1c-0.4-0.5-0.8-1.2-1.2-2.1C224.2,133.4,223.9,132.5,223.6,131.8z M204.6,118.7h14.1l-7.1-19.5
				L204.6,118.7z"/>
			<path class="st7" d="M223.6,131.8l-2.3-5.9h-19.2l-2.3,6.1c-0.9,2.4-1.6,4-2.3,4.8c-0.6,0.8-1.6,1.2-3.1,1.2
				c-1.2,0-2.3-0.4-3.2-1.3c-0.9-0.9-1.4-1.9-1.4-3c0-0.6,0.1-1.3,0.3-2c0.2-0.7,0.6-1.6,1.1-2.9l12.1-30.7c0.3-0.9,0.8-1.9,1.2-3.2
				s1-2.3,1.5-3.1c0.5-0.8,1.3-1.5,2.2-2c0.9-0.5,2-0.8,3.3-0.8c1.3,0,2.4,0.3,3.3,0.8c0.9,0.5,1.6,1.2,2.2,2s1,1.6,1.4,2.6
				c0.4,0.9,0.9,2.1,1.4,3.7l12.3,30.5c1,2.3,1.4,4,1.4,5.1c0,1.1-0.5,2.1-1.4,3c-0.9,0.9-2,1.4-3.3,1.4c-0.8,0-1.4-0.1-1.9-0.4
				c-0.5-0.3-1-0.6-1.4-1.1c-0.4-0.5-0.8-1.2-1.2-2.1C224.2,133.4,223.9,132.5,223.6,131.8z M204.6,118.7h14.1l-7.1-19.5
				L204.6,118.7z"/>
		</g>
	</g>
</g>
</svg>
