<?xml version="1.0" encoding="utf-8"?>
<!-- Generator: Adobe Illustrator 22.0.1, SVG Export Plug-In . SVG Version: 6.00 Build 0)  -->
<svg version="1.1" id="Layer_1" xmlns="http://www.w3.org/2000/svg" xmlns:xlink="http://www.w3.org/1999/xlink" x="0px" y="0px"
	 viewBox="0 0 97 163.7" style="enable-background:new 0 0 97 163.7;" xml:space="preserve">
<style type="text/css">
	.st0{fill:#5A9F98;stroke:#447975;stroke-width:2.2745;stroke-linecap:round;stroke-linejoin:round;stroke-miterlimit:10;}
	.st1{opacity:0.5;fill:#447975;}
	.st2{fill:#F5DD36;}
	.st3{fill:#683416;}
	.st4{opacity:0.4;fill:#FFFFFF;}
	.st5{opacity:0.4;fill:#DA9027;}
	.st6{opacity:0.8;fill:url(#SVGID_1_);}
	
		.st7{opacity:0.5;fill:#AF4D26;stroke:#DA9027;stroke-width:3.7908;stroke-linecap:round;stroke-linejoin:round;stroke-miterlimit:10;}
	.st8{opacity:0.5;}
	.st9{fill:none;stroke:#DA9027;stroke-width:6.0653;stroke-miterlimit:10;stroke-dasharray:1.524,2.2861;}
	.st10{fill:none;stroke:#DA9027;stroke-width:3.0326;stroke-linecap:round;stroke-linejoin:round;stroke-miterlimit:10;}
	.st11{fill:#AF4D26;stroke:#683416;stroke-width:4.549;stroke-linecap:round;stroke-linejoin:round;stroke-miterlimit:10;}
	.st12{fill:#AF4D26;}
	.st13{fill:#FFFFFF;}
	.st14{opacity:0.3;}
	.st15{fill:#DA9027;}
</style>
<g>
	<g>
		<polyline class="st0" points="48.5,88.1 73.4,59.1 73.4,17.2 23.7,17.2 23.7,59.1 48.5,88.1 		"/>
		<polyline class="st1" points="48.5,88.1 73.4,59.1 73.4,17.2 48.5,17.2 		"/>
	</g>
	<g>
		<g>
			<path class="st2" d="M19.6,20c-5.2,0-9.4-4.2-9.4-9.4c0-5.2,4.2-9.4,9.4-9.4h57.9c5.2,0,9.4,4.2,9.4,9.4c0,5.2-4.2,9.4-9.4,9.4
				H19.6z"/>
			<path class="st3" d="M77.4,2.3c4.6,0,8.3,3.7,8.3,8.3c0,4.6-3.7,8.3-8.3,8.3H19.6c-4.6,0-8.3-3.7-8.3-8.3c0-4.6,3.7-8.3,8.3-8.3
				H77.4 M77.4,0H19.6C13.8,0,9.1,4.7,9.1,10.5c0,5.8,4.7,10.5,10.5,10.5h57.9c5.8,0,10.5-4.7,10.5-10.5C88,4.7,83.3,0,77.4,0
				L77.4,0z"/>
		</g>
		<path class="st4" d="M83.5,4.9c-1.5-1.6-3.7-2.6-6.1-2.6H19.6c-2.2,0-4.7,1-6.1,2.6H83.5z"/>
		<path class="st5" d="M85.7,10.5L85.7,10.5c0,4.6-3.7,8.3-8.3,8.3H19.6c-4.6,0-8.3-3.7-8.3-8.3l0,0"/>
		<linearGradient id="SVGID_1_" gradientUnits="userSpaceOnUse" x1="48.5214" y1="10.544" x2="48.5214" y2="18.8155">
			<stop  offset="0" style="stop-color:#F7ED48;stop-opacity:0"/>
			<stop  offset="4.777691e-02" style="stop-color:#F4DE3E;stop-opacity:8.504286e-02"/>
			<stop  offset="0.1223" style="stop-color:#F0D033;stop-opacity:0.2177"/>
			<stop  offset="0.1991" style="stop-color:#EEC82D;stop-opacity:0.3544"/>
			<stop  offset="0.2809" style="stop-color:#EEC52B;stop-opacity:0.5"/>
			<stop  offset="0.6685" style="stop-color:#D98D3C"/>
			<stop  offset="0.8876" style="stop-color:#CB5F36"/>
			<stop  offset="1" style="stop-color:#C33531"/>
		</linearGradient>
		<path class="st6" d="M85.7,10.5L85.7,10.5c0,4.6-3.7,8.3-8.3,8.3H19.6c-4.6,0-8.3-3.7-8.3-8.3l0,0"/>
	</g>
	<g>
		<g>
			<g>
				<path class="st2" d="M48.5,162.2c-25.9,0-47-21.1-47-47c0-25.9,21.1-47,47-47c25.9,0,47,21.1,47,47
					C95.5,141.1,74.4,162.2,48.5,162.2z"/>
				<path class="st3" d="M48.5,69.7C73.6,69.7,94,90,94,115.2c0,25.1-20.4,45.5-45.5,45.5C23.4,160.6,3,140.3,3,115.2
					C3,90,23.4,69.7,48.5,69.7 M48.5,66.6C21.8,66.6,0,88.4,0,115.2c0,26.8,21.8,48.5,48.5,48.5c26.8,0,48.5-21.8,48.5-48.5
					C97,88.4,75.3,66.6,48.5,66.6L48.5,66.6z"/>
			</g>
			<path class="st7" d="M13.6,115.2c0,19.3,15.6,34.9,34.9,34.9c19.3,0,34.9-15.6,34.9-34.9c0-19.3-15.6-34.9-34.9-34.9
				C29.3,80.3,13.6,95.9,13.6,115.2z"/>
			<g class="st8">
				<path class="st9" d="M6.1,115.2c0,23.5,19,42.5,42.5,42.5c23.5,0,42.5-19,42.5-42.5c0-23.5-19-42.5-42.5-42.5
					C25.1,72.7,6.1,91.7,6.1,115.2z"/>
			</g>
			<path class="st10" d="M10.2,115.2c0,21.2,17.1,38.3,38.3,38.3c21.2,0,38.3-17.1,38.3-38.3c0-21.1-17.1-38.3-38.3-38.3
				C27.4,76.9,10.2,94,10.2,115.2z"/>
		</g>
		<g>
			<g>
				<g>
					<path class="st11" d="M63.7,138.7c-0.2,0-0.4-0.1-0.6-0.2l-14.5-7.7L34,138.5c-0.4,0.2-1,0.2-1.4-0.1c-0.4-0.3-1.1-0.8-1-1.3
						l3.3-16.3l-11.8-11.6c-0.4-0.3-0.5-3.4-0.3-3.9c0.2-0.5,0.6-0.3,1-0.4l16.3-0.3l7.3-14.9c0.2-0.4,0.7-0.7,1.2-0.7l0,0
						c0.5,0,0.9,0.3,1.2,0.7l7.3,14.9l16.3,0.3c0.5,0.1,0.9-0.1,1,0.4c0.2,0.5,0,3.6-0.3,3.9l-11.8,11.6l3.3,16.2
						c0,0.1,0.1,0.2,0.1,0.4C65.5,138.1,64.4,138.7,63.7,138.7C63.7,138.7,63.7,138.7,63.7,138.7z"/>
				</g>
				<g>
					<path class="st11" d="M63.7,135.6c-0.2,0-0.4,0-0.6-0.2l-14.5-7.7L34,135.4c-0.4,0.2-1,0.2-1.4-0.1c-0.4-0.3-0.6-0.8-0.5-1.3
						l2.8-16.3l-11.8-11.6c-0.4-0.3-0.5-0.9-0.3-1.3c0.2-0.5,0.6-0.8,1-0.9l16.3-2.4l7.3-14.9c0.2-0.4,0.7-0.7,1.2-0.7l0,0
						c0.5,0,0.9,0.3,1.2,0.7l7.3,14.9l16.3,2.4c0.5,0.1,0.9,0.4,1,0.9c0.2,0.5,0,1-0.3,1.3l-11.8,11.6l2.8,16.2
						c0,0.1,0.1,0.2,0.1,0.4C65,135,64.4,135.6,63.7,135.6C63.7,135.6,63.7,135.6,63.7,135.6z"/>
				</g>
			</g>
			<g>
				<g>
					<path class="st12" d="M63.7,138.7c-0.2,0-0.4-0.1-0.6-0.2l-14.5-7.7L34,138.5c-0.4,0.2-1,0.2-1.4-0.1c-0.4-0.3-1.1-0.8-1-1.3
						l3.3-16.3l-11.8-11.6c-0.4-0.3-0.5-3.4-0.3-3.9c0.2-0.5,0.6-0.3,1-0.4l16.3-0.3l7.3-14.9c0.2-0.4,0.7-0.7,1.2-0.7l0,0
						c0.5,0,0.9,0.3,1.2,0.7l7.3,14.9l16.3,0.3c0.5,0.1,0.9-0.1,1,0.4c0.2,0.5,0,3.6-0.3,3.9l-11.8,11.6l3.3,16.2
						c0,0.1,0.1,0.2,0.1,0.4C65.5,138.1,64.4,138.7,63.7,138.7C63.7,138.7,63.7,138.7,63.7,138.7z"/>
				</g>
				<g>
					<path class="st2" d="M63.7,135.6c-0.2,0-0.4,0-0.6-0.2l-14.5-7.7L34,135.4c-0.4,0.2-1,0.2-1.4-0.1c-0.4-0.3-0.6-0.8-0.5-1.3
						l2.8-16.3l-11.8-11.6c-0.4-0.3-0.5-0.9-0.3-1.3c0.2-0.5,0.6-0.8,1-0.9l16.3-2.4l7.3-14.9c0.2-0.4,0.7-0.7,1.2-0.7l0,0
						c0.5,0,0.9,0.3,1.2,0.7l7.3,14.9l16.3,2.4c0.5,0.1,0.9,0.4,1,0.9c0.2,0.5,0,1-0.3,1.3l-11.8,11.6l2.8,16.2
						c0,0.1,0.1,0.2,0.1,0.4C65,135,64.4,135.6,63.7,135.6C63.7,135.6,63.7,135.6,63.7,135.6z"/>
				</g>
				<g>
					<path class="st13" d="M47.4,89.1c-1.1,1.8-5,9.3,0.5,7.2C52.9,94.5,49.9,85.3,47.4,89.1C46.8,90.1,47.9,88.3,47.4,89.1z"/>
					<path class="st13" d="M43.6,97.3c-0.7,0.4-1.4,1.4-1.3,2.2c0.1,0.6,0.4,1.2,1,1.5c0.7,0.4,1.7,0.3,2.3-0.1
						c0.9-0.6,1.1-2.2,0.3-3C45.3,97.2,44.5,97.1,43.6,97.3z"/>
					<path class="st13" d="M34,104.3c-2.1-0.6-11.1-0.3-8.3,2.8C29.6,111.5,37,105.2,34,104.3C33.6,104.2,34.6,104.5,34,104.3z"/>
				</g>
				<g class="st14">
					<path class="st15" d="M74.3,104.9c-0.2-0.5-0.6-0.8-1-0.9l-13-1.9c-0.4,12.3-10.8,22.5-23.2,22.5c-1.1,0-2.2-0.1-3.3-0.2
						l-1.7,9.7c-0.1,0.5,0.1,1,0.5,1.3c0.4,0.3,0.9,0.3,1.4,0.1l14.5-7.7l14.5,7.7c0.2,0.1,0.4,0.2,0.6,0.2c0,0,0,0,0,0
						c0.7,0,1.3-0.6,1.3-1.3c0-0.1,0-0.3-0.1-0.4l-2.8-16.2l11.8-11.6C74.3,105.9,74.4,105.3,74.3,104.9z"/>
				</g>
				<g class="st14">
					<path class="st15" d="M74.3,104.9c-0.2-0.5-0.6-0.8-1-0.9l-9.8-1.4c0,0.3,0,0.5,0,0.8c0,13.4-11.2,24.5-24.5,24.5
						c-2,0-3.9-0.2-5.7-0.7l-1.2,6.9c-0.1,0.5,0.1,1,0.5,1.3c0.4,0.3,0.9,0.3,1.4,0.1l14.5-7.7l14.5,7.7c0.2,0.1,0.4,0.2,0.6,0.2
						c0,0,0,0,0,0c0.7,0,1.3-0.6,1.3-1.3c0-0.1,0-0.3-0.1-0.4l-2.8-16.2l11.8-11.6C74.3,105.9,74.4,105.3,74.3,104.9z"/>
				</g>
			</g>
		</g>
	</g>
</g>
</svg>
