{
  "title": "Mirar con los lentes de género",
  "content": "<p>El primer compromiso a incorporar en nuestro actuar como personas del servicio público para construir la igualdad es mirar con los \"lentes de género\", es decir; tomar en cuenta las condiciones, necesidades, posibilidades y diferencias que existen entre mujeres y hombres; para ello, es necesario reconocer los estereotipos que pueden generar o reproducir discriminación y desigualdad. Esta mirada o perspectiva de género es indispensable como una estrategia transversal en los planes y programas institucionales y de política pública ya que permiten implementar acciones que garanticen los derechos de todas las mujeres desde diferentes ámbitos.</p><p>Aprender a mirar con lentes de género requiere un gran trabajo de concientización y reflexión tanto individual como colectivo; pero sólo así podremos adoptar nuevos conocimientos, prácticas y relaciones que transformen normas, procedimientos y la cultura institucional; así como los servicios, programas y políticas que se formulan y ejecutan desde las entidades y dependencias públicas.</p>",
  "videoIntro": "Para saber más sobre estos lentes de género te invitamos a ver la siguiente cápsula:",
  "video": "/video/peg-segmento1.mp4",
  "close": "Entonces, mirar con los “lentes de género” nos permite cuestionar y transformar las relaciones entre mujeres y hombres. ¿Aceptas el reto?",
  "checkboxtext": "Me comprometo a mirar con los lentes de género",
  "personaje" : "/images/personajes/instructora-circulo.png"

}