{
  "title": "Mi compromiso personal por la igualdad entre mujeres y hombres",
  "content": "<div class=\"bx-dialog\"><img src=\"img/personajes/mujer-indiscapacitada-inner.png\" class=\"is-closer-character\"><p class=\"dialog\">Ahora que ya sabes cuáles son algunos de los compromisos indispensables que las personas del servicio público debemos asumir, es momento de poner en práctica lo aprendido en el curso y redactar una acción personal (diferente a las anteriores), que contribuya a hacer efectiva la igualdad sustantiva entre mujeres y hombres. ¿Aceptas el reto?</p></div><br><br><p>Escribe tu compromiso personal y da clic para aceptarlo:</p>",
  "checkboxtext": "Me comprometo a ",
  "hasInput": true,
  "isLast": true,
  "personaje" : "/images/personajes/instructor-circulo.png"
}
